module gitlab.com/damanbolghanova/se1903Service

go 1.15

require (
	github.com/ardanlabs/conf v1.4.0
	github.com/davecgh/go-spew v1.1.1 // indirect
	github.com/dgrijalva/jwt-go v3.2.0+incompatible
	github.com/dimfeld/httptreemux v5.0.1+incompatible
	github.com/dimfeld/httptreemux/v5 v5.3.0
	github.com/go-playground/locales v0.13.0
	github.com/go-playground/universal-translator v0.17.0
	github.com/google/go-cmp v0.5.6 // indirect
	github.com/google/uuid v1.2.0
	github.com/leodido/go-urn v1.2.1 // indirect
	github.com/pkg/errors v0.9.1
	go.opentelemetry.io/otel/trace v0.20.0
	golang.org/x/xerrors v0.0.0-20200804184101-5ec99f83aff1 // indirect
	gopkg.in/go-playground/assert.v1 v1.2.1 // indirect
	gopkg.in/go-playground/validator.v9 v9.31.0
	gopkg.in/yaml.v3 v3.0.0-20210107192922-496545a6307b // indirect
)
